Case Study 01 - Beers and Breweries
…
## -- Column specification --------------------------------------------------------------------------------------------------
## Delimiter: ","
## chr (3): Name, City, State
## dbl (1): Brew_ID

## 
## i Use `spec()` to retrieve the full column specification for this data.
## i Specify the column types or set `show_col_types = FALSE` to quiet this message.

#merge the data before performing EDA
names(Breweries)[1] <- 'Brewery_id'
Breweries

## # A tibble: 558 x 4
##    Brewery_id Name                         City          State
##         <dbl> <chr>                        <chr>         <chr>
##  1          1 NorthGate Brewing            Minneapolis   MN   
##  2          2 Against the Grain Brewery    Louisville    KY   
##  3          3 Jack's Abby Craft Lagers     Framingham    MA   
##  4          4 Mike Hess Brewing Company    San Diego     CA   
##  5          5 Fort Point Beer Company      San Francisco CA   
##  6          6 COAST Brewing Company        Charleston    SC   
##  7          7 Great Divide Brewing Company Denver        CO   
##  8          8 Tapistry Brewing             Bridgman      MI   
##  9          9 Big Lake Brewing             Holland       MI   
## 10         10 The Mitten Brewing Company   Grand Rapids  MI   
## # ... with 548 more rows
…
